VHDL/fulladdertest-1.vcd
$date
	Mon Sep 27 14:27:02 2021
$end
$version
	QuestaSim Version 2020.4
$end
$timescale
	1fs
$end
$scope module tb_fulladder $end
$var wire 1 ! tb_a $end
$var wire 1 " tb_b $end
$var wire 1 # tb_cin $end
$var wire 1 $ tb_s $end
$var wire 1 % tb_cout $end
$upscope $end
$enddefinitions $end
#0
0!
0"
0#
0$
0%
0$
0%
#10000000
1!
1$
#20000000
1#
1%
0$
#30000000
0#
1"
#40000000
1#
1$
#50000000
0!
0$
#60000000
0#
0%
1$
#70000000
1#
0"
#80000000
0#
0$
